freertos.c:116:6:_putchar	16	static
freertos.c:137:6:MX_FREERTOS_Init	8	static
freertos.c:206:6:StartHeartbeatTask	16	static
freertos.c:225:6:StartBmp280Task	88	static
freertos.c:267:6:StartOledTask	80	static
freertos.c:319:6:TimerBmpDataCallback	16	static
