freertos.c:109:6:MX_FREERTOS_Init	8	static
freertos.c:164:6:StartLed2Task	24	static
freertos.c:187:6:StartProducer1	24	static
freertos.c:211:6:StartConsumer1	24	static
freertos.c:233:6:StartProducer2	24	static
freertos.c:253:6:_putchar	16	static
freertos.c:258:6:HAL_GPIO_EXTI_Callback	16	static
