freertos.c:107:6:MX_FREERTOS_Init	8	static
freertos.c:162:6:StartLed2Task	24	static
freertos.c:185:6:StartProducer1	24	static
freertos.c:209:6:StartConsumer1	24	static
freertos.c:231:6:StartProducer2	24	static
freertos.c:251:6:_putchar	16	static
freertos.c:256:6:HAL_GPIO_EXTI_Callback	16	static
