stm32f4xx_it.c:71:6:NMI_Handler	4	static
stm32f4xx_it.c:86:6:HardFault_Handler	4	static
stm32f4xx_it.c:101:6:MemManage_Handler	4	static
stm32f4xx_it.c:116:6:BusFault_Handler	4	static
stm32f4xx_it.c:131:6:UsageFault_Handler	4	static
stm32f4xx_it.c:146:6:DebugMon_Handler	4	static
stm32f4xx_it.c:166:6:PVD_IRQHandler	8	static
stm32f4xx_it.c:180:6:FLASH_IRQHandler	8	static
stm32f4xx_it.c:194:6:RCC_IRQHandler	4	static
stm32f4xx_it.c:207:6:TIM1_UP_TIM10_IRQHandler	8	static
