button.c:14:6:ButtonInitKey	24	static
button.c:26:6:ButtonRegisterPressCallback	16	static
button.c:31:6:ButtonRegisterLongPressCallback	16	static
button.c:36:6:ButtonRegisterRepeatPressCallback	16	static
button.c:41:6:ButtonIdleRoutine	16	static
button.c:61:6:ButtonDebounceRoutine	16	static
button.c:84:6:ButtonPressedRoutine	16	static
button.c:108:6:ButtonRepeatRoutine	16	static
button.c:131:6:ButtonTask	16	static
